
<svg viewBox="0 0 400 600" xmlns="http://www.w3.org/2000/svg" xmlns:svg="http://www.w3.org/2000/svg">
<style>
  .btn { fill: #999; }
  .btn { rx: 15; }
  .btn { stroke:#000 }
  .deck { fill: #999; }
  .deck { stroke:#000}
  .shuttle { fill: #4c4c4c; }
  .shuttle { stroke:#000}
  .jog { fill: #7f7f7f; }
  .jog { stroke:#000}
  .plinth { fill: #4c4c4c; }
  .plinth { stroke:#000}
  .joy { fill: #2c2c2c; }
  .joy { stroke:#000}
  .frame {fill:#00f}
  .btn:hover{fill:#0f0}
  .shuttle:hover, .jog:hover{fill:#f00} <!-- must use this to  show elements on top of each other-->
</style>

   <svg id="joystick_1" x="0" y="0" width="400" height="300" viewBox="0 0 400 300">
    <rect class="deck" x="0" y="0" height="300" id="jog_deck" width="400" />
    <rect class="plinth" x="90" y="40" height="220" id="base_1" width="220" />
    <circle class="plinth" cx="200" cy="150"  id="boot_1" r="80" />
    <circle class="plinth" cx="200" cy="150"  id="boot_2" r="60" />
    <circle class="plinth" cx="210" cy="140"  id="boot_3" r="50" />
    <circle class="plinth" cx="220" cy="130"  id="boot_4" r="40" />

    <rect class="joy" id="wing_1" x="161" y="104" height="9" width="10" rx="2" ry="2" transform="rotate(30,260,100)" />
    <rect class="joy" id="wing_2" x="309" y="104" height="9" width="10" rx="2" ry="2" transform="rotate(30,260,100)" />
    <rect class="joy" id="wing_3" x="237" y="35" height="11" width="9" rx="2" ry="2" transform="rotate(30,260,100)" />
    <rect class="joy" id="wing_4" x="237" y="174" height="11" width="9" rx="2" ry="2" transform="rotate(30,260,100)" />
    <ellipse class="joy" cx="240" cy="110"  id="joy_1" rx="70" ry="65" transform="rotate(30,260,100)" />
    <ellipse cx="240" cy="110"  id="joy_1" rx="66" ry="61" transform="rotate(30,260,100)" fill="#1c1c1c" stroke="#000000" />
   </svg>

</svg>
