
<svg viewBox="0 0 1600 200" xmlns="http://www.w3.org/2000/svg" xmlns:svg="http://www.w3.org/2000/svg">
<style>
  .btn { fill: #999; }
  .btn { rx: 15; }
  .btn { stroke:#000 }

  .frame {fill:#00f}
  .btn:hover{fill:#0f0} <!-- hover is optional and may be ommited-->
  
</style>
 <g class="device" id="XKR32">
  <rect class="frame" id="frame_1" x="0" y="0"  height="200" width="1600"  />
  
  <g id="button_panel">
  <rect class="btn" id="btn_1" x="0" y="0"  height="100" width="100"  />
  <rect class="btn" id="btn_2" x="100" y="0"  height="100" width="100"  />
  <rect class="btn" id="btn_3" x="200" y="0"  height="100" width="100"   />
  <rect class="btn" id="btn_4" x="300" y="0"  height="100" width="100"   />
  <rect class="btn" id="btn_5" x="400" y="0"  height="100" width="100"  />
  <rect class="btn" id="btn_6" x="500" y="0"  height="100" width="100"  />
  <rect class="btn" id="btn_7" x="600" y="0"  height="100" width="100"   />
  <rect class="btn" id="btn_8" x="700" y="0"  height="100" width="100"   />
  <rect class="btn" id="btn_9" x="800" y="0"  height="100" width="100"  />
  <rect class="btn" id="btn_10" x="900" y="0"  height="100" width="100"  />
  <rect class="btn" id="btn_11" x="1000" y="0"  height="100" width="100"   />
  <rect class="btn" id="btn_12" x="1100" y="0"  height="100" width="100"   />
  <rect class="btn" id="btn_13" x="1200" y="0"  height="100" width="100"  />
  <rect class="btn" id="btn_14" x="1300" y="0"  height="100" width="100"  />
  <rect class="btn" id="btn_15" x="1400" y="0"  height="100" width="100"   />
  <rect class="btn" id="btn_16" x="1500" y="0"  height="100" width="100"   />

  <rect class="btn" id="btn_17" x="0" y="100"  height="100" width="100"  />
  <rect class="btn" id="btn_18" x="100" y="100"  height="100" width="100"  />
  <rect class="btn" id="btn_19" x="200" y="100"  height="100" width="100"   />
  <rect class="btn" id="btn_20" x="300" y="100"  height="100" width="100"   />
  <rect class="btn" id="btn_21" x="400" y="100"  height="100" width="100"  />
  <rect class="btn" id="btn_22" x="500" y="100"  height="100" width="100"  />
  <rect class="btn" id="btn_23" x="600" y="100"  height="100" width="100"   />
  <rect class="btn" id="btn_24" x="700" y="100"  height="100" width="100"   />
  <rect class="btn" id="btn_25" x="800" y="100"  height="100" width="100"  />
  <rect class="btn" id="btn_26" x="900" y="100"  height="100" width="100"  />
  <rect class="btn" id="btn_27" x="1000" y="100"  height="100" width="100"   />
  <rect class="btn" id="btn_28" x="1100" y="100"  height="100" width="100"   />
  <rect class="btn" id="btn_29" x="1200" y="100"  height="100" width="100"  />
  <rect class="btn" id="btn_30" x="1300" y="100"  height="100" width="100"  />
  <rect class="btn" id="btn_31" x="1400" y="100"  height="100" width="100"   />
  <rect class="btn" id="btn_32" x="1500" y="100"  height="100" width="100"   />
  </g>

  </g>

</svg>
